…
Using the final data set created in the end of report2:

``` r
# From report 2 we know that '_se' columns do not contribute to our research questions
# Hence 10 columns will be dropped

(cancer_final <- cancer_sample %>%
  select(-radius_se, -texture_se, -perimeter_se, -area_se, -smoothness_se, -compactness_se, -concavity_se, -concave_points_se, -symmetry_se, -fractal_dimension_se) %>%
  arrange(diagnosis) %>%  # Arranging for better organization
  select(-ID) %>%   # Removing original ID column as number is non-consistent format
  mutate(ID = row_number()) %>%  # Adding consistent ID column
  select(ID, everything()))      # Moving ID column as first col
```

    ## # A tibble: 569 x 22
    ##       ID diagnosis radius_mean texture_mean perimeter_mean area_mean
    ##    <int> <chr>           <dbl>        <dbl>          <dbl>     <dbl>
    ##  1     1 B               13.5          14.4           87.5      566.
    ##  2     2 B               13.1          15.7           85.6      520 
    ##  3     3 B                9.50         12.4           60.3      274.
    ##  4     4 B               13.0          18.4           82.6      524.
    ##  5     5 B                8.20         16.8           51.7      202.
    ##  6     6 B               12.0          14.6           78.0      449.
    ##  7     7 B               13.5          22.3           86.9      561 
    ##  8     8 B               11.8          21.6           74.7      428.
    ##  9     9 B               13.6          16.3           87.2      572.
    ## 10    10 B               11.9          18.2           75.7      438.
    ## # ... with 559 more rows, and 16 more variables: smoothness_mean <dbl>,
    ## #   compactness_mean <dbl>, concavity_mean <dbl>, concave_points_mean <dbl>,
    ## #   symmetry_mean <dbl>, fractal_dimension_mean <dbl>, radius_worst <dbl>,
    ## #   texture_worst <dbl>, perimeter_worst <dbl>, area_worst <dbl>,
    ## #   smoothness_worst <dbl>, compactness_worst <dbl>, concavity_worst <dbl>,
    ## #   concave_points_worst <dbl>, symmetry_worst <dbl>,
    ## #   fractal_dimension_worst <dbl>

Now, creating 5 categories for the numerical variable
‘concave\_points\_mean’:

``` r
# Adding column for categorization of 'concavity_mean' into 5 buckets
(cancer_categorical <- cancer_final %>%
  mutate(concave_points_mean_level = case_when(concave_points_mean<0.04 ~ "Very Low",
                                         concave_points_mean<0.08 ~ "Low",
                                         concave_points_mean<0.12 ~ "Normal",
                                         concave_points_mean<0.16 ~ "High",
                                         TRUE ~ "Very High")))
```

    ## # A tibble: 569 x 23
    ##       ID diagnosis radius_mean texture_mean perimeter_mean area_mean
    ##    <int> <chr>           <dbl>        <dbl>          <dbl>     <dbl>
    ##  1     1 B               13.5          14.4           87.5      566.
    ##  2     2 B               13.1          15.7           85.6      520 
    ##  3     3 B                9.50         12.4           60.3      274.
    ##  4     4 B               13.0          18.4           82.6      524.
    ##  5     5 B                8.20         16.8           51.7      202.
    ##  6     6 B               12.0          14.6           78.0      449.
    ##  7     7 B               13.5          22.3           86.9      561 
    ##  8     8 B               11.8          21.6           74.7      428.
    ##  9     9 B               13.6          16.3           87.2      572.
    ## 10    10 B               11.9          18.2           75.7      438.
    ## # ... with 559 more rows, and 17 more variables: smoothness_mean <dbl>,
    ## #   compactness_mean <dbl>, concavity_mean <dbl>, concave_points_mean <dbl>,
    ## #   symmetry_mean <dbl>, fractal_dimension_mean <dbl>, radius_worst <dbl>,
    ## #   texture_worst <dbl>, perimeter_worst <dbl>, area_worst <dbl>,
    ## #   smoothness_worst <dbl>, compactness_worst <dbl>, concavity_worst <dbl>,
    ## #   concave_points_worst <dbl>, symmetry_worst <dbl>,
    ## #   fractal_dimension_worst <dbl>, concave_points_mean_level <chr>
…
