…
``` r
# Adding column for categorization of 'concavity_mean' into 4 buckets

(cancer_categ <- cancer_sample %>%
  mutate(concavity_mean_level = case_when(concavity_mean<0.04 ~ "Low",
                                         concavity_mean<0.08 ~ "Normal",
                                         concavity_mean<0.12 ~ "High",
                                         TRUE ~ "Very High")))
```

    ## # A tibble: 569 x 33
    ##          ID diagnosis radius_mean texture_mean perimeter_mean area_mean
    ##       <dbl> <chr>           <dbl>        <dbl>          <dbl>     <dbl>
    ##  1   842302 M                18.0         10.4          123.      1001 
    ##  2   842517 M                20.6         17.8          133.      1326 
    ##  3 84300903 M                19.7         21.2          130       1203 
    ##  4 84348301 M                11.4         20.4           77.6      386.
    ##  5 84358402 M                20.3         14.3          135.      1297 
    ##  6   843786 M                12.4         15.7           82.6      477.
    ##  7   844359 M                18.2         20.0          120.      1040 
    ##  8 84458202 M                13.7         20.8           90.2      578.
    ##  9   844981 M                13           21.8           87.5      520.
    ## 10 84501001 M                12.5         24.0           84.0      476.
    ## # ... with 559 more rows, and 27 more variables: smoothness_mean <dbl>,
    ## #   compactness_mean <dbl>, concavity_mean <dbl>, concave_points_mean <dbl>,
    ## #   symmetry_mean <dbl>, fractal_dimension_mean <dbl>, radius_se <dbl>,
    ## #   texture_se <dbl>, perimeter_se <dbl>, area_se <dbl>, smoothness_se <dbl>,
    ## #   compactness_se <dbl>, concavity_se <dbl>, concave_points_se <dbl>,
    ## #   symmetry_se <dbl>, fractal_dimension_se <dbl>, radius_worst <dbl>,
    ## #   texture_worst <dbl>, perimeter_worst <dbl>, area_worst <dbl>, ...
…
``` r
(cancer_long <- cancer_sample %>%
   pivot_longer(cols     = c(-ID, -diagnosis), 
               names_to  = "feature",
               values_to = "numerical_value"))
```

    ## # A tibble: 17,070 x 4
    ##        ID diagnosis feature                numerical_value
    ##     <dbl> <chr>     <chr>                            <dbl>
    ##  1 842302 M         radius_mean                    18.0   
    ##  2 842302 M         texture_mean                   10.4   
    ##  3 842302 M         perimeter_mean                123.    
    ##  4 842302 M         area_mean                    1001     
    ##  5 842302 M         smoothness_mean                 0.118 
    ##  6 842302 M         compactness_mean                0.278 
    ##  7 842302 M         concavity_mean                  0.300 
    ##  8 842302 M         concave_points_mean             0.147 
    ##  9 842302 M         symmetry_mean                   0.242 
    ## 10 842302 M         fractal_dimension_mean          0.0787
    ## # ... with 17,060 more rows

Now tidying the data back again:

``` r
(cancer_sample <- cancer_long %>%
   pivot_wider(id_cols     = c(ID, diagnosis), 
               names_from  = "feature",
               values_from = "numerical_value"))
```

    ## # A tibble: 569 x 32
    ##          ID diagnosis radius_mean texture_mean perimeter_mean area_mean
    ##       <dbl> <chr>           <dbl>        <dbl>          <dbl>     <dbl>
    ##  1   842302 M                18.0         10.4          123.      1001 
    ##  2   842517 M                20.6         17.8          133.      1326 
    ##  3 84300903 M                19.7         21.2          130       1203 
    ##  4 84348301 M                11.4         20.4           77.6      386.
    ##  5 84358402 M                20.3         14.3          135.      1297 
    ##  6   843786 M                12.4         15.7           82.6      477.
    ##  7   844359 M                18.2         20.0          120.      1040 
    ##  8 84458202 M                13.7         20.8           90.2      578.
    ##  9   844981 M                13           21.8           87.5      520.
    ## 10 84501001 M                12.5         24.0           84.0      476.
    ## # ... with 559 more rows, and 26 more variables: smoothness_mean <dbl>,
    ## #   compactness_mean <dbl>, concavity_mean <dbl>, concave_points_mean <dbl>,
    ## #   symmetry_mean <dbl>, fractal_dimension_mean <dbl>, radius_se <dbl>,
    ## #   texture_se <dbl>, perimeter_se <dbl>, area_se <dbl>, smoothness_se <dbl>,
    ## #   compactness_se <dbl>, concavity_se <dbl>, concave_points_se <dbl>,
    ## #   symmetry_se <dbl>, fractal_dimension_se <dbl>, radius_worst <dbl>,
    ## #   texture_worst <dbl>, perimeter_worst <dbl>, area_worst <dbl>, ...
…
**Data set:** As discussed above, I need to drop all of the ten ’\_se’
cols:

``` r
(cancer_final <- cancer_sample %>%
  select(-radius_se, -texture_se, -perimeter_se, -area_se, -smoothness_se, -compactness_se, -concavity_se, -concave_points_se, -symmetry_se, -fractal_dimension_se) %>%
  arrange(diagnosis) %>%  # Arranging for better organization
  select(-ID) %>%   # Removing original ID column as number is non-consistent format
  mutate(ID = row_number()) %>%  # Adding consistent ID column
  select(ID, everything()))      # Moveing ID column as first col
```

    ## # A tibble: 569 x 22
    ##       ID diagnosis radius_mean texture_mean perimeter_mean area_mean
    ##    <int> <chr>           <dbl>        <dbl>          <dbl>     <dbl>
    ##  1     1 B               13.5          14.4           87.5      566.
    ##  2     2 B               13.1          15.7           85.6      520 
    ##  3     3 B                9.50         12.4           60.3      274.
    ##  4     4 B               13.0          18.4           82.6      524.
    ##  5     5 B                8.20         16.8           51.7      202.
    ##  6     6 B               12.0          14.6           78.0      449.
    ##  7     7 B               13.5          22.3           86.9      561 
    ##  8     8 B               11.8          21.6           74.7      428.
    ##  9     9 B               13.6          16.3           87.2      572.
    ## 10    10 B               11.9          18.2           75.7      438.
    ## # ... with 559 more rows, and 16 more variables: smoothness_mean <dbl>,
    ## #   compactness_mean <dbl>, concavity_mean <dbl>, concave_points_mean <dbl>,
    ## #   symmetry_mean <dbl>, fractal_dimension_mean <dbl>, radius_worst <dbl>,
    ## #   texture_worst <dbl>, perimeter_worst <dbl>, area_worst <dbl>,
    ## #   smoothness_worst <dbl>, compactness_worst <dbl>, concavity_worst <dbl>,
    ## #   concave_points_worst <dbl>, symmetry_worst <dbl>,
    ## #   fractal_dimension_worst <dbl>

My dataset is well formed and tidy, and does not have any missing
values; hence does not require any further manipulation to be used on
report3. However, to meet the instruction requirements, I hypothetically
manipulate data below to showcase familiarity using other functions, as
asked:

``` r
(cancer_final%>%
  filter(diagnosis=="M", radius_mean > 20)) # Selecting only observations associated to 'malignant' diagnosis class with radius_mean greater than 20
```

    ## # A tibble: 45 x 22
    ##       ID diagnosis radius_mean texture_mean perimeter_mean area_mean
    ##    <int> <chr>           <dbl>        <dbl>          <dbl>     <dbl>
    ##  1   359 M                20.6         17.8           133.      1326
    ##  2   362 M                20.3         14.3           135.      1297
    ##  3   378 M                21.2         23.0           137.      1404
    ##  4   413 M                20.2         24.0           144.      1245
    ##  5   414 M                25.2         24.9           172.      1878
    ##  6   421 M                20.3         23.0           132.      1264
    ##  7   425 M                22.3         19.7           153.      1509
    ##  8   430 M                24.2         20.2           166.      1761
    ##  9   444 M                23.3         22.0           152.      1686
    ## 10   450 M                27.2         21.9           182.      2250
    ## # ... with 35 more rows, and 16 more variables: smoothness_mean <dbl>,
    ## #   compactness_mean <dbl>, concavity_mean <dbl>, concave_points_mean <dbl>,
    ## #   symmetry_mean <dbl>, fractal_dimension_mean <dbl>, radius_worst <dbl>,
    ## #   texture_worst <dbl>, perimeter_worst <dbl>, area_worst <dbl>,
    ## #   smoothness_worst <dbl>, compactness_worst <dbl>, concavity_worst <dbl>,
    ## #   concave_points_worst <dbl>, symmetry_worst <dbl>,
    ## #   fractal_dimension_worst <dbl>
