…
``` r
# Checking the difference in mean diameter between different genus tree types 
vancouver_trees %>% 
  group_by(genus_name) %>%
  summarize(meanDiameter=mean(diameter, na.rm=TRUE))
```

    ## # A tibble: 97 x 2
    ##    genus_name  meanDiameter
    ##    <chr>              <dbl>
    ##  1 ABIES              12.9 
    ##  2 ACER               10.6 
    ##  3 AESCULUS           23.7 
    ##  4 AILANTHUS          15.9 
    ##  5 ALBIZIA             6   
    ##  6 ALNUS              17.5 
    ##  7 AMELANCHIER         3.21
    ##  8 ARALIA              6.81
    ##  9 ARAUCARIA          11.4 
    ## 10 ARBUTUS            18.4 
    ## # ... with 87 more rows

``` r
# Determining distinct genus-specie pairs
distinct(vancouver_trees, genus_name, species_name)
```

    ## # A tibble: 361 x 2
    ##    genus_name species_name
    ##    <chr>      <chr>       
    ##  1 ULMUS      AMERICANA   
    ##  2 ZELKOVA    SERRATA     
    ##  3 STYRAX     JAPONICA    
    ##  4 FRAXINUS   AMERICANA   
    ##  5 ACER       CAMPESTRE   
    ##  6 PYRUS      CALLERYANA  
    ##  7 ACER       PLATANOIDES 
    ##  8 TILIA      EUCHLORA   X
    ##  9 HIBISCUS   SYRIACA     
    ## 10 FRAXINUS   OXYCARPA    
    ## # ... with 351 more rows
…
